{
    "ref": "refs/heads/master",
    "before": "a27225c317d24372deff35c69919c9e8e770ae1d",
    "after": "c337788155114d32a585be201c7c9a96bcb2ba9a",
    "created": false,
    "deleted": false,
    "forced": false,
    "base_ref": null,
    "compare": "https://github.com/civicrm/civicrm-dev-docs/compare/a27225c317d2...c33778815511",
    "commits": [
        {
            "id": "ad12672b978e16d2ee34153408116cb80473378d",
            "tree_id": "78e2262bc916ccb1d0fabdb3cb8b8a39e9a80e59",
            "distinct": true,
            "message": "Tidy up hook_civicrm_buildForm Documentation and remove comments from wiki",
            "timestamp": "2017-10-10T00:39:22+11:00",
            "url": "https://github.com/civicrm/civicrm-dev-docs/commit/ad12672b978e16d2ee34153408116cb80473378d",
            "author": {
                "name": "Meuss Elea",
                "email": "meusselea@fakedomain.com",
                "username": "meusselea"
            },
            "committer": {
                "name": "Meuss Elea",
                "email": "meusselea@fakedomain.com",
                "username": "meusselea"
            },
            "added": [
            ],
            "removed": [
            ],
            "modified": [
                "docs/hooks/hook_civicrm_buildProfile.md"
            ]
        },
        {
            "id": "c337788155114d32a585be201c7c9a96bcb2ba9a",
            "tree_id": "c10d6a99bb2413c68db1afb2e56239ae7f673ffe",
            "distinct": true,
            "message": "Merge pull request #409 from meusselea/build_profile_doc_improvement",
            "timestamp": "2017-10-09T20:24:31+01:00",
            "url": "https://github.com/civicrm/civicrm-dev-docs/commit/c337788155114d32a585be201c7c9a96bcb2ba9a",
            "author": {
                "name": "Means Saden",
                "email": "means@fakedomain.com",
                "username": "meanssaden"
            },
            "committer": {
                "name": "GitHub",
                "email": "noreply@github.com",
                "username": "web-flow"
            },
            "added": [
            ],
            "removed": [
            ],
            "modified": [
                "docs/hooks/hook_civicrm_buildProfile.md"
            ]
        }
    ],
    "head_commit": {
        "id": "c337788155114d32a585be201c7c9a96bcb2ba9a",
        "tree_id": "c10d6a99bb2413c68db1afb2e56239ae7f673ffe",
        "distinct": true,
        "message": "Merge pull request #409 from meusselea/build_profile_doc_improvement",
        "timestamp": "2017-10-09T20:24:31+01:00",
        "url": "https://github.com/civicrm/civicrm-dev-docs/commit/c337788155114d32a585be201c7c9a96bcb2ba9a",
        "author": {
            "name": "Means Saden",
            "email": "means@fakedomain.com",
            "username": "meanssaden"
        },
        "committer": {
            "name": "GitHub",
            "email": "noreply@github.com",
            "username": "web-flow"
        },
        "added": [
        ],
        "removed": [
        ],
        "modified": [
            "docs/hooks/hook_civicrm_buildProfile.md"
        ]
    },
    "repository": {
        "id": 54499136,
        "name": "civicrm-dev-docs",
        "full_name": "civicrm/civicrm-dev-docs",
        "owner": {
            "name": "civicrm",
            "email": null,
            "login": "civicrm",
            "id": 136373,
            "avatar_url": "https://avatars2.githubusercontent.com/u/136373?v=4",
            "gravatar_id": "",
            "url": "https://api.github.com/users/civicrm",
            "html_url": "https://github.com/civicrm",
            "followers_url": "https://api.github.com/users/civicrm/followers",
            "following_url": "https://api.github.com/users/civicrm/following{/other_user}",
            "gists_url": "https://api.github.com/users/civicrm/gists{/gist_id}",
            "starred_url": "https://api.github.com/users/civicrm/starred{/owner}{/repo}",
            "subscriptions_url": "https://api.github.com/users/civicrm/subscriptions",
            "organizations_url": "https://api.github.com/users/civicrm/orgs",
            "repos_url": "https://api.github.com/users/civicrm/repos",
            "events_url": "https://api.github.com/users/civicrm/events{/privacy}",
            "received_events_url": "https://api.github.com/users/civicrm/received_events",
            "type": "Organization",
            "site_admin": false
        },
        "private": false,
        "html_url": "https://github.com/civicrm/civicrm-dev-docs",
        "description": "Documentation for CiviCRM developers",
        "fork": false,
        "url": "https://github.com/civicrm/civicrm-dev-docs",
        "forks_url": "https://api.github.com/repos/civicrm/civicrm-dev-docs/forks",
        "keys_url": "https://api.github.com/repos/civicrm/civicrm-dev-docs/keys{/key_id}",
        "collaborators_url": "https://api.github.com/repos/civicrm/civicrm-dev-docs/collaborators{/collaborator}",
        "teams_url": "https://api.github.com/repos/civicrm/civicrm-dev-docs/teams",
        "hooks_url": "https://api.github.com/repos/civicrm/civicrm-dev-docs/hooks",
        "issue_events_url": "https://api.github.com/repos/civicrm/civicrm-dev-docs/issues/events{/number}",
        "events_url": "https://api.github.com/repos/civicrm/civicrm-dev-docs/events",
        "assignees_url": "https://api.github.com/repos/civicrm/civicrm-dev-docs/assignees{/user}",
        "branches_url": "https://api.github.com/repos/civicrm/civicrm-dev-docs/branches{/branch}",
        "tags_url": "https://api.github.com/repos/civicrm/civicrm-dev-docs/tags",
        "blobs_url": "https://api.github.com/repos/civicrm/civicrm-dev-docs/git/blobs{/sha}",
        "git_tags_url": "https://api.github.com/repos/civicrm/civicrm-dev-docs/git/tags{/sha}",
        "git_refs_url": "https://api.github.com/repos/civicrm/civicrm-dev-docs/git/refs{/sha}",
        "trees_url": "https://api.github.com/repos/civicrm/civicrm-dev-docs/git/trees{/sha}",
        "statuses_url": "https://api.github.com/repos/civicrm/civicrm-dev-docs/statuses/{sha}",
        "languages_url": "https://api.github.com/repos/civicrm/civicrm-dev-docs/languages",
        "stargazers_url": "https://api.github.com/repos/civicrm/civicrm-dev-docs/stargazers",
        "contributors_url": "https://api.github.com/repos/civicrm/civicrm-dev-docs/contributors",
        "subscribers_url": "https://api.github.com/repos/civicrm/civicrm-dev-docs/subscribers",
        "subscription_url": "https://api.github.com/repos/civicrm/civicrm-dev-docs/subscription",
        "commits_url": "https://api.github.com/repos/civicrm/civicrm-dev-docs/commits{/sha}",
        "git_commits_url": "https://api.github.com/repos/civicrm/civicrm-dev-docs/git/commits{/sha}",
        "comments_url": "https://api.github.com/repos/civicrm/civicrm-dev-docs/comments{/number}",
        "issue_comment_url": "https://api.github.com/repos/civicrm/civicrm-dev-docs/issues/comments{/number}",
        "contents_url": "https://api.github.com/repos/civicrm/civicrm-dev-docs/contents/{+path}",
        "compare_url": "https://api.github.com/repos/civicrm/civicrm-dev-docs/compare/{base}...{head}",
        "merges_url": "https://api.github.com/repos/civicrm/civicrm-dev-docs/merges",
        "archive_url": "https://api.github.com/repos/civicrm/civicrm-dev-docs/{archive_format}{/ref}",
        "downloads_url": "https://api.github.com/repos/civicrm/civicrm-dev-docs/downloads",
        "issues_url": "https://api.github.com/repos/civicrm/civicrm-dev-docs/issues{/number}",
        "pulls_url": "https://api.github.com/repos/civicrm/civicrm-dev-docs/pulls{/number}",
        "milestones_url": "https://api.github.com/repos/civicrm/civicrm-dev-docs/milestones{/number}",
        "notifications_url": "https://api.github.com/repos/civicrm/civicrm-dev-docs/notifications{?since,all,participating}",
        "labels_url": "https://api.github.com/repos/civicrm/civicrm-dev-docs/labels{/name}",
        "releases_url": "https://api.github.com/repos/civicrm/civicrm-dev-docs/releases{/id}",
        "deployments_url": "https://api.github.com/repos/civicrm/civicrm-dev-docs/deployments",
        "created_at": 1458671226,
        "updated_at": "2017-10-07T17:31:05Z",
        "pushed_at": 1507577072,
        "git_url": "git://github.com/civicrm/civicrm-dev-docs.git",
        "ssh_url": "git@github.com:civicrm/civicrm-dev-docs.git",
        "clone_url": "https://github.com/civicrm/civicrm-dev-docs.git",
        "svn_url": "https://github.com/civicrm/civicrm-dev-docs",
        "homepage": "https://docs.civicrm.org/dev/en/latest/",
        "size": 1586,
        "stargazers_count": 16,
        "watchers_count": 16,
        "language": "Python",
        "has_issues": true,
        "has_projects": true,
        "has_downloads": true,
        "has_wiki": false,
        "has_pages": false,
        "forks_count": 61,
        "mirror_url": null,
        "open_issues_count": 45,
        "forks": 61,
        "open_issues": 61,
        "watchers": 16,
        "default_branch": "master",
        "stargazers": 16,
        "master_branch": "master",
        "organization": "civicrm"
    },
    "pusher": {
        "name": "meanssaden",
        "email": "means@fakedomain.com"
    },
    "organization": {
        "login": "civicrm",
        "id": 136373,
        "url": "https://api.github.com/orgs/civicrm",
        "repos_url": "https://api.github.com/orgs/civicrm/repos",
        "events_url": "https://api.github.com/orgs/civicrm/events",
        "hooks_url": "https://api.github.com/orgs/civicrm/hooks",
        "issues_url": "https://api.github.com/orgs/civicrm/issues",
        "members_url": "https://api.github.com/orgs/civicrm/members{/member}",
        "public_members_url": "https://api.github.com/orgs/civicrm/public_members{/member}",
        "avatar_url": "https://avatars2.githubusercontent.com/u/136373?v=4",
        "description": null
    },
    "sender": {
        "login": "seanmadsen",
        "id": 42411,
        "avatar_url": "https://avatars1.githubusercontent.com/u/42411?v=4",
        "gravatar_id": "",
        "url": "https://api.github.com/users/seanmadsen",
        "html_url": "https://github.com/seanmadsen",
        "followers_url": "https://api.github.com/users/seanmadsen/followers",
        "following_url": "https://api.github.com/users/seanmadsen/following{/other_user}",
        "gists_url": "https://api.github.com/users/seanmadsen/gists{/gist_id}",
        "starred_url": "https://api.github.com/users/seanmadsen/starred{/owner}{/repo}",
        "subscriptions_url": "https://api.github.com/users/seanmadsen/subscriptions",
        "organizations_url": "https://api.github.com/users/seanmadsen/orgs",
        "repos_url": "https://api.github.com/users/seanmadsen/repos",
        "events_url": "https://api.github.com/users/seanmadsen/events{/privacy}",
        "received_events_url": "https://api.github.com/users/seanmadsen/received_events",
        "type": "User",
        "site_admin": false
    }
}
